{
    "swagger": "2.0",
    "info": {
        "title": "salon manager",
        "description": "This is the backend for salon",
        "contact": {},
        "version": "1.0.0"
    },
    "paths": {
        "/accounts": {
            "get": {
                "tags": [
                    "Accounts"
                ],
                "summary": "List All Accounts",
                "description": "Gets a list of all `Account` entities.",
                "operationId": "getAccounts",
                "responses": {
                    "200": {
                        "description": "Successful response - returns an array of `Account` entities.",
                        "schema": {
                            "type": "array",
                            "items": {
                                "$ref": "#/definitions/Account"
                            }
                        }
                    }
                }
            },
            "post": {
                "tags": [
                    "Accounts"
                ],
                "summary": "Create a Account",
                "description": "Creates a new instance of a `Account`.",
                "operationId": "createAccount",
                "parameters": [{
                    "name": "body",
                    "in": "body",
                    "description": "A new `Account` to be created.",
                    "required": true,
                    "schema": {
                        "$ref": "#/definitions/Account"
                    }
                }],
                "responses": {
                    "201": {
                        "description": "Successful response."
                    }
                }
            }
        },
        "/accounts/{accountId}": {
            "get": {
                "tags": [
                    "Accounts"
                ],
                "summary": "Get a Account",
                "description": "Gets the details of a single instance of a `Account`.",
                "operationId": "getAccount",
                "responses": {
                    "200": {
                        "description": "Successful response - returns a single `Account`.",
                        "schema": {
                            "$ref": "#/definitions/Account"
                        }
                    }
                }
            },
            "put": {
                "tags": [
                    "Accounts"
                ],
                "summary": "Update a Account",
                "description": "Updates an existing `Account`.",
                "operationId": "updateAccount",
                "parameters": [{
                    "name": "body",
                    "in": "body",
                    "description": "Updated `Account` information.",
                    "required": true,
                    "schema": {
                        "$ref": "#/definitions/Account"
                    }
                }],
                "responses": {
                    "202": {
                        "description": "Successful response."
                    }
                }
            },
            "delete": {
                "tags": [
                    "Accounts"
                ],
                "summary": "Delete a Account",
                "description": "Deletes an existing `Account`.",
                "operationId": "deleteAccount",
                "responses": {
                    "204": {
                        "description": "Successful response."
                    }
                }
            },
            "parameters": [{
                "name": "accountId",
                "in": "path",
                "description": "A unique identifier for a `Account`.",
                "required": true,
                "type": "string"
            }]
        },
        "/users/{userId}": {
            "get": {
                "tags": [
                    "Users"
                ],
                "summary": "Get a User",
                "description": "Gets the details of a single instance of a `User`.",
                "operationId": "getUser",
                "parameters": [{
                    "name": "userId",
                    "in": "path",
                    "description": "A unique identifier for a `User`",
                    "required": true,
                    "type": "string"
                }],
                "responses": {
                    "200": {
                        "description": "Successful response - returns a single `User`.",
                        "schema": {
                            "$ref": "#/definitions/User"
                        }
                    },
                    "404": {
                        "description": "This is generated when the user is not found in the system"
                    },
                    "500": {
                        "description": "Internal error"
                    }
                }
            },
            "put": {
                "tags": [
                    "Users"
                ],
                "summary": "Update a User",
                "description": "Updates an existing `User`.",
                "operationId": "updateUser",
                "consumes": [
                    "application/json"
                ],
                "produces": [
                    "application/json"
                ],
                "parameters": [{
                        "name": "body",
                        "in": "body",
                        "description": "Updated `User` information.",
                        "required": true,
                        "schema": {
                            "$ref": "#/definitions/User"
                        }
                    },
                    {
                        "name": "userId",
                        "in": "path",
                        "description": "user id",
                        "required": true,
                        "type": "string"
                    }
                ],
                "responses": {
                    "202": {
                        "description": "Successfull. The updated record will be sent back with this response",
                        "schema": {
                            "$ref": "#/definitions/User"
                        }
                    },
                    "400": {
                        "description": "Validation failure",
                        "schema": {
                            "$ref": "#/definitions/Error"
                        }
                    },
                    "404": {
                        "description": "The user id is not found in the system. Cannot be updated"
                    },
                    "409": {
                        "description": "The server has detected that there is newer copy of the entity based on the ref_ver. Update is rejected.\nThe record that was found is sent with this response",
                        "schema": {
                            "$ref": "#/definitions/User"
                        }
                    },
                    "500": {
                        "description": "Internal error. Retry later"
                    }
                }
            },
            "delete": {
                "tags": [
                    "Users"
                ],
                "summary": "Delete a User",
                "description": "Deletes an existing `User`.",
                "operationId": "deleteUser",
                "produces": [
                    "application/json"
                ],
                "parameters": [{
                    "name": "userId",
                    "in": "path",
                    "description": "A unique identifier for a `User`.",
                    "required": true,
                    "type": "string"
                }],
                "responses": {
                    "200": {
                        "description": "Succesfull. The deleted record will be sent back with this response",
                        "schema": {
                            "$ref": "#/definitions/User"
                        }
                    },
                    "400": {
                        "description": "Validation failures",
                        "schema": {
                            "$ref": "#/definitions/Error"
                        }
                    },
                    "404": {
                        "description": "User id is not found in the system"
                    },
                    "500": {
                        "description": "Internal error"
                    }
                }
            }
        },
        "/users": {
            "get": {
                "tags": [
                    "Users"
                ],
                "summary": "List All Users",
                "description": "Gets a list of all `User` entities.",
                "operationId": "getUsers",
                "produces": [
                    "application/json"
                ],
                "responses": {
                    "200": {
                        "description": "Successful response - returns an array of users",
                        "schema": {
                            "type": "array",
                            "items": {
                                "$ref": "#/definitions/User"
                            }
                        }
                    },
                    "500": {
                        "description": "Triggered due to some internal error. "
                    }
                }
            },
            "post": {
                "tags": [
                    "Users"
                ],
                "summary": "Create a User",
                "description": "Creates a new instance of a `User`.",
                "operationId": "createUser",
                "parameters": [{
                    "name": "body",
                    "in": "body",
                    "description": "A new `User` to be created.",
                    "required": true,
                    "schema": {
                        "$ref": "#/definitions/User"
                    }
                }],
                "responses": {
                    "201": {
                        "description": "Success. Newly created record will be sent with this response",
                        "schema": {
                            "$ref": "#/definitions/User"
                        }
                    },
                    "400": {
                        "description": "Validation failures",
                        "schema": {
                            "$ref": "#/definitions/Error"
                        }
                    },
                    "409": {
                        "description": "The server has detected another record in database with the same key. That record will be sent with this response",
                        "schema": {
                            "$ref": "#/definitions/User"
                        }
                    },
                    "500": {
                        "description": "Inetnal error"
                    }
                }
            }
        },
        "/users/authenticate/{userId}/{password}": {
            "get": {
                "tags": [
                    "Users"
                ],
                "summary": "Get a User if authenticate is success",
                "description": "Gets the details of a single instance of a `User`.",
                "operationId": "authenticateAndGetUser",
                "parameters": [{
                        "name": "userId",
                        "in": "path",
                        "description": "A unique identifier for a `User`",
                        "required": true,
                        "type": "string"
                    },
                    {
                        "name": "password",
                        "in": "path",
                        "description": "A unique identifier for a `User`",
                        "required": true,
                        "type": "string"
                    }
                ],
                "responses": {
                    "200": {
                        "description": "Successful response - returns a single `User`.",
                        "schema": {
                            "$ref": "#/definitions/User"
                        }
                    },
                    "404": {
                        "description": "This is generated when the user is not found in the system"
                    },
                    "500": {
                        "description": "Internal error"
                    }
                }
            }
        },
        "/users/accounts/{accountid}": {
            "get": {
                "tags": [
                    "Users"
                ],
                "summary": "Get all User in account",
                "description": "Get all User in account",
                "operationId": "getUsersInAccount",
                "parameters": [{
                    "name": "accountid",
                    "in": "path",
                    "description": "A unique identifier for a account",
                    "required": true,
                    "type": "string"
                }],
                "responses": {
                    "200": {
                        "description": "Successful response - returns a single `User`.",
                        "schema": {
                            "$ref": "#/definitions/User"
                        }
                    },
                    "404": {
                        "description": "This is generated when the account is not found in the system"
                    },
                    "500": {
                        "description": "Internal error"
                    }
                }
            }
        },
        "/posts": {
            "post": {
                "tags": [
                    "Post"
                ],
                "summary": "Create a Post for account",
                "description": "Create a new Post for account",
                "operationId": "createPost",
                "parameters": [{
                    "name": "body",
                    "in": "body",
                    "description": "A new Post to be created.",
                    "required": true,
                    "schema": {
                        "$ref": "#/definitions/Post"
                    }
                }],
                "responses": {
                    "201": {
                        "description": "Success. Newly created record will be sent with this response",
                        "schema": {
                            "$ref": "#/definitions/Post"
                        }
                    },
                    "400": {
                        "description": "Validation failures",
                        "schema": {
                            "$ref": "#/definitions/Error"
                        }
                    },
                    "409": {
                        "description": "The server has detected another record in database with the same key. That record will be sent with this response",
                        "schema": {
                            "$ref": "#/definitions/Post"
                        }
                    },
                    "500": {
                        "description": "Inetnal error"
                    }
                }
            }
        },
        "/posts/{postId}": {
            "get": {
                "tags": [
                    "Post"
                ],
                "summary": "Get a Post",
                "description": "Gets the details of a single instance of a Post",
                "operationId": "getPost",
                "parameters": [{
                    "name": "postId",
                    "in": "path",
                    "description": "A unique identifier for a `Post`",
                    "required": true,
                    "type": "string"
                }],
                "responses": {
                    "200": {
                        "description": "Successful response - returns a exsting post",
                        "schema": {
                            "$ref": "#/definitions/Post"
                        }
                    },
                    "404": {
                        "description": "This is generated when the post is not found in the system"
                    },
                    "500": {
                        "description": "Internal error"
                    }
                }
            },
            "put": {
                "tags": [
                    "Post"
                ],
                "summary": "Update a Post",
                "description": "Updates an existing `Post`.",
                "operationId": "updatePost",
                "consumes": [
                    "application/json"
                ],
                "produces": [
                    "application/json"
                ],
                "parameters": [{
                        "name": "body",
                        "in": "body",
                        "description": "Updated Post information.",
                        "required": true,
                        "schema": {
                            "$ref": "#/definitions/Post"
                        }
                    },
                    {
                        "name": "postId",
                        "in": "path",
                        "description": "post id",
                        "required": true,
                        "type": "string"
                    }
                ],
                "responses": {
                    "202": {
                        "description": "Successfull. The updated record will be sent back with this response",
                        "schema": {
                            "$ref": "#/definitions/Post"
                        }
                    },
                    "400": {
                        "description": "Validation failure",
                        "schema": {
                            "$ref": "#/definitions/Error"
                        }
                    },
                    "404": {
                        "description": "The post  is not found in the system. Cannot be updated"
                    },
                    "409": {
                        "description": "The server has detected that there is newer copy of the entity based on the ref_ver. Update is rejected.\nThe record that was found is sent with this response",
                        "schema": {
                            "$ref": "#/definitions/Post"
                        }
                    },
                    "500": {
                        "description": "Internal error. Retry later"
                    }
                }
            },
            "delete": {
                "tags": [
                    "Post"
                ],
                "summary": "Delete a Post",
                "description": "Deletes an existing `Post`.",
                "operationId": "deletePost",
                "produces": [
                    "application/json"
                ],
                "parameters": [{
                    "name": "postId",
                    "in": "path",
                    "description": "A unique identifier for a `Post`.",
                    "required": true,
                    "type": "string"
                }],
                "responses": {
                    "200": {
                        "description": "Succesfull. The deleted record will be sent back with this response",
                        "schema": {
                            "$ref": "#/definitions/Post"
                        }
                    },
                    "400": {
                        "description": "Validation failures",
                        "schema": {
                            "$ref": "#/definitions/Error"
                        }
                    },
                    "404": {
                        "description": "Post is not found in the system"
                    },
                    "500": {
                        "description": "Internal error"
                    }
                }
            }
        },
        "/posts/accounts/{accountid}": {
            "get": {
                "tags": [
                    "Post"
                ],
                "summary": "Get all posts in account",
                "description": "Get all posts in account",
                "operationId": "getPostsInAccount",
                "parameters": [{
                    "name": "accountid",
                    "in": "path",
                    "description": "A unique identifier for a account",
                    "required": true,
                    "type": "string"
                }],
                "responses": {
                    "200": {
                        "description": "Successful response - returns a single `Post`.",
                        "schema": {
                            "type": "array",
                            "items": {
                                "$ref": "#/definitions/Post"
                            }
                        }
                    },
                    "404": {
                        "description": "This is generated when the account is not found in the system"
                    },
                    "500": {
                        "description": "Internal error"
                    }
                }
            }
        },
        "/reviews": {
            "post": {
                "tags": [
                    "Review"
                ],
                "summary": "Create a Review for account",
                "description": "Create a new Review for account",
                "operationId": "createReview",
                "parameters": [{
                    "name": "body",
                    "in": "body",
                    "description": "A new Review to be created.",
                    "required": true,
                    "schema": {
                        "$ref": "#/definitions/Review"
                    }
                }],
                "responses": {
                    "201": {
                        "description": "Success. Newly created record will be sent with this response",
                        "schema": {
                            "$ref": "#/definitions/Review"
                        }
                    },
                    "400": {
                        "description": "Validation failures",
                        "schema": {
                            "$ref": "#/definitions/Error"
                        }
                    },
                    "409": {
                        "description": "The server has detected another record in database with the same key. That record will be sent with this response",
                        "schema": {
                            "$ref": "#/definitions/Review"
                        }
                    },
                    "500": {
                        "description": "Inetnal error"
                    }
                }
            }
        },
        "/reviews/{reviewId}": {
            "get": {
                "tags": [
                    "Review"
                ],
                "summary": "Get a Review",
                "description": "Gets the details of a single instance of a Review",
                "operationId": "getReview",
                "parameters": [{
                    "name": "reviewId",
                    "in": "path",
                    "description": "A unique identifier for a `Review`",
                    "required": true,
                    "type": "string"
                }],
                "responses": {
                    "200": {
                        "description": "Successful response - returns a exsting post",
                        "schema": {
                            "$ref": "#/definitions/Review"
                        }
                    },
                    "404": {
                        "description": "This is generated when the post is not found in the system"
                    },
                    "500": {
                        "description": "Internal error"
                    }
                }
            },
            "put": {
                "tags": [
                    "Review"
                ],
                "summary": "Update a Review",
                "description": "Updates an existing `Review`.",
                "operationId": "updateReview",
                "consumes": [
                    "application/json"
                ],
                "produces": [
                    "application/json"
                ],
                "parameters": [{
                        "name": "body",
                        "in": "body",
                        "description": "Updated Review information.",
                        "required": true,
                        "schema": {
                            "$ref": "#/definitions/Review"
                        }
                    },
                    {
                        "name": "reviewId",
                        "in": "path",
                        "description": "review Id",
                        "required": true,
                        "type": "string"
                    }
                ],
                "responses": {
                    "202": {
                        "description": "Successfull. The updated record will be sent back with this response",
                        "schema": {
                            "$ref": "#/definitions/Review"
                        }
                    },
                    "400": {
                        "description": "Validation failure",
                        "schema": {
                            "$ref": "#/definitions/Error"
                        }
                    },
                    "404": {
                        "description": "The post  is not found in the system. Cannot be updated"
                    },
                    "409": {
                        "description": "The server has detected that there is newer copy of the entity based on the ref_ver. Update is rejected.\nThe record that was found is sent with this response",
                        "schema": {
                            "$ref": "#/definitions/Review"
                        }
                    },
                    "500": {
                        "description": "Internal error. Retry later"
                    }
                }
            },
            "delete": {
                "tags": [
                    "Review"
                ],
                "summary": "Delete a Review",
                "description": "Deletes an existing `Review`.",
                "operationId": "deleteReview",
                "produces": [
                    "application/json"
                ],
                "parameters": [{
                    "name": "reviewId",
                    "in": "path",
                    "description": "A unique identifier for a `Review`.",
                    "required": true,
                    "type": "string"
                }],
                "responses": {
                    "200": {
                        "description": "Succesfull. The deleted record will be sent back with this response",
                        "schema": {
                            "$ref": "#/definitions/Review"
                        }
                    },
                    "400": {
                        "description": "Validation failures",
                        "schema": {
                            "$ref": "#/definitions/Error"
                        }
                    },
                    "404": {
                        "description": "Review is not found in the system"
                    },
                    "500": {
                        "description": "Internal error"
                    }
                }
            }
        },
        "/reviews/accounts/{accountid}": {
            "get": {
                "tags": [
                    "Review"
                ],
                "summary": "Get all reviews in account",
                "description": "Get all reviews in account",
                "operationId": "getReviewsInAccount",
                "parameters": [{
                    "name": "accountid",
                    "in": "path",
                    "description": "A unique identifier for a account",
                    "required": true,
                    "type": "string"
                }],
                "responses": {
                    "200": {
                        "description": "Successful response - returns a single `Review`.",
                        "schema": {
                            "type": "array",
                            "items": {
                                "$ref": "#/definitions/Review"
                            }
                        }
                    },
                    "404": {
                        "description": "This is generated when the account is not found in the system"
                    },
                    "500": {
                        "description": "Internal error"
                    }
                }
            }
        },
        "/messages": {
            "post": {
                "tags": [
                    "Message"
                ],
                "summary": "Create a Message for account",
                "description": "Create a new Message for account",
                "operationId": "createMessage",
                "parameters": [{
                    "name": "body",
                    "in": "body",
                    "description": "A new Message to be created.",
                    "required": true,
                    "schema": {
                        "$ref": "#/definitions/Message"
                    }
                }],
                "responses": {
                    "201": {
                        "description": "Success. Newly created record will be sent with this response",
                        "schema": {
                            "$ref": "#/definitions/Message"
                        }
                    },
                    "400": {
                        "description": "Validation failures",
                        "schema": {
                            "$ref": "#/definitions/Error"
                        }
                    },
                    "409": {
                        "description": "The server has detected another record in database with the same key. That record will be sent with this response",
                        "schema": {
                            "$ref": "#/definitions/Message"
                        }
                    },
                    "500": {
                        "description": "Inetnal error"
                    }
                }
            }
        },
        "/messages/{messageId}": {
            "get": {
                "tags": [
                    "Message"
                ],
                "summary": "Get a Message",
                "description": "Gets the details of a single instance of a Message",
                "operationId": "getMessage",
                "parameters": [{
                    "name": "messageId",
                    "in": "path",
                    "description": "A unique identifier for a `Message`",
                    "required": true,
                    "type": "string"
                }],
                "responses": {
                    "200": {
                        "description": "Successful response - returns a exsting post",
                        "schema": {
                            "$ref": "#/definitions/Message"
                        }
                    },
                    "404": {
                        "description": "This is generated when the post is not found in the system"
                    },
                    "500": {
                        "description": "Internal error"
                    }
                }
            },
            "put": {
                "tags": [
                    "Message"
                ],
                "summary": "Update a Message",
                "description": "Updates an existing `Message`.",
                "operationId": "updateMessage",
                "consumes": [
                    "application/json"
                ],
                "produces": [
                    "application/json"
                ],
                "parameters": [{
                        "name": "body",
                        "in": "body",
                        "description": "Updated Message information.",
                        "required": true,
                        "schema": {
                            "$ref": "#/definitions/Message"
                        }
                    },
                    {
                        "name": "messageId",
                        "in": "path",
                        "description": "message Id",
                        "required": true,
                        "type": "string"
                    }
                ],
                "responses": {
                    "202": {
                        "description": "Successfull. The updated record will be sent back with this response",
                        "schema": {
                            "$ref": "#/definitions/Message"
                        }
                    },
                    "400": {
                        "description": "Validation failure",
                        "schema": {
                            "$ref": "#/definitions/Error"
                        }
                    },
                    "404": {
                        "description": "The post  is not found in the system. Cannot be updated"
                    },
                    "409": {
                        "description": "The server has detected that there is newer copy of the entity based on the ref_ver. Update is rejected.\nThe record that was found is sent with this response",
                        "schema": {
                            "$ref": "#/definitions/Message"
                        }
                    },
                    "500": {
                        "description": "Internal error. Retry later"
                    }
                }
            },
            "delete": {
                "tags": [
                    "Message"
                ],
                "summary": "Delete a Message",
                "description": "Deletes an existing `Message`.",
                "operationId": "deleteMessage",
                "produces": [
                    "application/json"
                ],
                "parameters": [{
                    "name": "messageId",
                    "in": "path",
                    "description": "A unique identifier for a `Message`.",
                    "required": true,
                    "type": "string"
                }],
                "responses": {
                    "200": {
                        "description": "Succesfull. The deleted record will be sent back with this response",
                        "schema": {
                            "$ref": "#/definitions/Message"
                        }
                    },
                    "400": {
                        "description": "Validation failures",
                        "schema": {
                            "$ref": "#/definitions/Error"
                        }
                    },
                    "404": {
                        "description": "Message is not found in the system"
                    },
                    "500": {
                        "description": "Internal error"
                    }
                }
            }
        },
        "/messages/sender/{senderId}": {
            "get": {
                "tags": [
                    "Message"
                ],
                "summary": "Get all messages in sender",
                "description": "Get all messages from sender",
                "operationId": "getMessagesOfSender",
                "parameters": [{
                    "name": "senderId",
                    "in": "path",
                    "description": "A unique identifier for a account",
                    "required": true,
                    "type": "string"
                }],
                "responses": {
                    "200": {
                        "description": "Successful response - returns a single `Message`.",
                        "schema": {
                            "type": "array",
                            "items": {
                                "$ref": "#/definitions/Message"
                            }
                        }
                    },
                    "404": {
                        "description": "This is generated when the sender is not found in the system"
                    },
                    "500": {
                        "description": "Internal error"
                    }
                }
            }
        },
        "/messages/reciever/{recieverId}": {
            "get": {
                "tags": [
                    "Message"
                ],
                "summary": "Get all messages in reciever",
                "description": "Get all messages in reciever",
                "operationId": "getMessagesOfReciever",
                "parameters": [{
                    "name": "recieverId",
                    "in": "path",
                    "description": "A unique identifier for a account",
                    "required": true,
                    "type": "string"
                }],
                "responses": {
                    "200": {
                        "description": "Successful response - returns a single `Message`.",
                        "schema": {
                            "type": "array",
                            "items": {
                                "$ref": "#/definitions/Message"
                            }
                        }
                    },
                    "404": {
                        "description": "This is generated when the reciever is not found in the system"
                    },
                    "500": {
                        "description": "Internal error"
                    }
                }
            }
        },
        "/products": {
            "post": {
                "tags": [
                    "Product"
                ],
                "summary": "Create a Product for account",
                "description": "Create a new Product for account",
                "operationId": "createProduct",
                "parameters": [{
                    "name": "body",
                    "in": "body",
                    "description": "A new Product to be created.",
                    "required": true,
                    "schema": {
                        "$ref": "#/definitions/Product"
                    }
                }],
                "responses": {
                    "201": {
                        "description": "Success. Newly created record will be sent with this response",
                        "schema": {
                            "$ref": "#/definitions/Product"
                        }
                    },
                    "400": {
                        "description": "Validation failures",
                        "schema": {
                            "$ref": "#/definitions/Error"
                        }
                    },
                    "409": {
                        "description": "The server has detected another record in database with the same key. That record will be sent with this response",
                        "schema": {
                            "$ref": "#/definitions/Product"
                        }
                    },
                    "500": {
                        "description": "Inetnal error"
                    }
                }
            }
        },
        "/products/{productId}": {
            "get": {
                "tags": [
                    "Product"
                ],
                "summary": "Get a Product",
                "description": "Gets the details of a single instance of a Product",
                "operationId": "getProduct",
                "parameters": [{
                    "name": "productId",
                    "in": "path",
                    "description": "A unique identifier for a `Product`",
                    "required": true,
                    "type": "string"
                }],
                "responses": {
                    "200": {
                        "description": "Successful response - returns a exsting post",
                        "schema": {
                            "$ref": "#/definitions/Product"
                        }
                    },
                    "404": {
                        "description": "This is generated when the post is not found in the system"
                    },
                    "500": {
                        "description": "Internal error"
                    }
                }
            },
            "put": {
                "tags": [
                    "Product"
                ],
                "summary": "Update a Product",
                "description": "Updates an existing `Product`.",
                "operationId": "updateProduct",
                "consumes": [
                    "application/json"
                ],
                "produces": [
                    "application/json"
                ],
                "parameters": [{
                        "name": "body",
                        "in": "body",
                        "description": "Updated Product information.",
                        "required": true,
                        "schema": {
                            "$ref": "#/definitions/Product"
                        }
                    },
                    {
                        "name": "productId",
                        "in": "path",
                        "description": "productId",
                        "required": true,
                        "type": "string"
                    }
                ],
                "responses": {
                    "202": {
                        "description": "Successfull. The updated record will be sent back with this response",
                        "schema": {
                            "$ref": "#/definitions/Product"
                        }
                    },
                    "400": {
                        "description": "Validation failure",
                        "schema": {
                            "$ref": "#/definitions/Error"
                        }
                    },
                    "404": {
                        "description": "The post  is not found in the system. Cannot be updated"
                    },
                    "409": {
                        "description": "The server has detected that there is newer copy of the entity based on the ref_ver. Update is rejected.\nThe record that was found is sent with this response",
                        "schema": {
                            "$ref": "#/definitions/Product"
                        }
                    },
                    "500": {
                        "description": "Internal error. Retry later"
                    }
                }
            },
            "delete": {
                "tags": [
                    "Product"
                ],
                "summary": "Delete a Product",
                "description": "Deletes an existing `Product`.",
                "operationId": "deleteProduct",
                "produces": [
                    "application/json"
                ],
                "parameters": [{
                    "name": "productId",
                    "in": "path",
                    "description": "A unique identifier for a `Product`.",
                    "required": true,
                    "type": "string"
                }],
                "responses": {
                    "200": {
                        "description": "Succesfull. The deleted record will be sent back with this response",
                        "schema": {
                            "$ref": "#/definitions/Product"
                        }
                    },
                    "400": {
                        "description": "Validation failures",
                        "schema": {
                            "$ref": "#/definitions/Error"
                        }
                    },
                    "404": {
                        "description": "Product is not found in the system"
                    },
                    "500": {
                        "description": "Internal error"
                    }
                }
            }
        },
        "/products/accounts/{accountId}": {
            "get": {
                "tags": [
                    "Product"
                ],
                "summary": "Get all products in sender",
                "description": "Get all products from sender",
                "operationId": "getProductsOfSender",
                "parameters": [{
                    "name": "accountId",
                    "in": "path",
                    "description": "A unique identifier for a account",
                    "required": true,
                    "type": "string"
                }],
                "responses": {
                    "200": {
                        "description": "Successful response - returns a single `Product`.",
                        "schema": {
                            "type": "array",
                            "items": {
                                "$ref": "#/definitions/Product"
                            }
                        }
                    },
                    "404": {
                        "description": "This is generated when the sender is not found in the system"
                    },
                    "500": {
                        "description": "Internal error"
                    }
                }
            }
        },
        "/services": {
            "post": {
                "tags": [
                    "Service"
                ],
                "summary": "Create a Service for account",
                "description": "Create a new Service for account",
                "operationId": "createService",
                "parameters": [{
                    "name": "body",
                    "in": "body",
                    "description": "A new Service to be created.",
                    "required": true,
                    "schema": {
                        "$ref": "#/definitions/Service"
                    }
                }],
                "responses": {
                    "201": {
                        "description": "Success. Newly created record will be sent with this response",
                        "schema": {
                            "$ref": "#/definitions/Service"
                        }
                    },
                    "400": {
                        "description": "Validation failures",
                        "schema": {
                            "$ref": "#/definitions/Error"
                        }
                    },
                    "409": {
                        "description": "The server has detected another record in database with the same key. That record will be sent with this response",
                        "schema": {
                            "$ref": "#/definitions/Service"
                        }
                    },
                    "500": {
                        "description": "Inetnal error"
                    }
                }
            }
        },
        "/services/{serviceId}": {
            "get": {
                "tags": [
                    "Service"
                ],
                "summary": "Get a Service",
                "description": "Gets the details of a single instance of a Service",
                "operationId": "getService",
                "parameters": [{
                    "name": "serviceId",
                    "in": "path",
                    "description": "A unique identifier for a `Service`",
                    "required": true,
                    "type": "string"
                }],
                "responses": {
                    "200": {
                        "description": "Successful response - returns a exsting post",
                        "schema": {
                            "$ref": "#/definitions/Service"
                        }
                    },
                    "404": {
                        "description": "This is generated when the post is not found in the system"
                    },
                    "500": {
                        "description": "Internal error"
                    }
                }
            },
            "put": {
                "tags": [
                    "Service"
                ],
                "summary": "Update a Service",
                "description": "Updates an existing `Service`.",
                "operationId": "updateService",
                "consumes": [
                    "application/json"
                ],
                "produces": [
                    "application/json"
                ],
                "parameters": [{
                        "name": "body",
                        "in": "body",
                        "description": "Updated Service information.",
                        "required": true,
                        "schema": {
                            "$ref": "#/definitions/Service"
                        }
                    },
                    {
                        "name": "serviceId",
                        "in": "path",
                        "description": "serviceId",
                        "required": true,
                        "type": "string"
                    }
                ],
                "responses": {
                    "202": {
                        "description": "Successfull. The updated record will be sent back with this response",
                        "schema": {
                            "$ref": "#/definitions/Service"
                        }
                    },
                    "400": {
                        "description": "Validation failure",
                        "schema": {
                            "$ref": "#/definitions/Error"
                        }
                    },
                    "404": {
                        "description": "The post  is not found in the system. Cannot be updated"
                    },
                    "409": {
                        "description": "The server has detected that there is newer copy of the entity based on the ref_ver. Update is rejected.\nThe record that was found is sent with this response",
                        "schema": {
                            "$ref": "#/definitions/Service"
                        }
                    },
                    "500": {
                        "description": "Internal error. Retry later"
                    }
                }
            },
            "delete": {
                "tags": [
                    "Service"
                ],
                "summary": "Delete a Service",
                "description": "Deletes an existing `Service`.",
                "operationId": "deleteService",
                "produces": [
                    "application/json"
                ],
                "parameters": [{
                    "name": "serviceId",
                    "in": "path",
                    "description": "A unique identifier for a `Service`.",
                    "required": true,
                    "type": "string"
                }],
                "responses": {
                    "200": {
                        "description": "Succesfull. The deleted record will be sent back with this response",
                        "schema": {
                            "$ref": "#/definitions/Service"
                        }
                    },
                    "400": {
                        "description": "Validation failures",
                        "schema": {
                            "$ref": "#/definitions/Error"
                        }
                    },
                    "404": {
                        "description": "Service is not found in the system"
                    },
                    "500": {
                        "description": "Internal error"
                    }
                }
            }
        },
        "/services/accounts/{accountId}": {
            "get": {
                "tags": [
                    "Service"
                ],
                "summary": "Get all services in sender",
                "description": "Get all services from sender",
                "operationId": "getServicesOfSender",
                "parameters": [{
                    "name": "accountId",
                    "in": "path",
                    "description": "A unique identifier for a account",
                    "required": true,
                    "type": "string"
                }],
                "responses": {
                    "200": {
                        "description": "Successful response - returns a single `Service`.",
                        "schema": {
                            "type": "array",
                            "items": {
                                "$ref": "#/definitions/Service"
                            }
                        }
                    },
                    "404": {
                        "description": "This is generated when the sender is not found in the system"
                    },
                    "500": {
                        "description": "Internal error"
                    }
                }
            }
        },
        "/bills": {
            "post": {
                "tags": [
                    "Bill"
                ],
                "summary": "Create a Bill for account",
                "description": "Create a new Bill for account",
                "operationId": "createBill",
                "parameters": [{
                    "name": "body",
                    "in": "body",
                    "description": "A new Bill to be created.",
                    "required": true,
                    "schema": {
                        "$ref": "#/definitions/Bill"
                    }
                }],
                "responses": {
                    "201": {
                        "description": "Success. Newly created record will be sent with this response",
                        "schema": {
                            "$ref": "#/definitions/Bill"
                        }
                    },
                    "400": {
                        "description": "Validation failures",
                        "schema": {
                            "$ref": "#/definitions/Error"
                        }
                    },
                    "409": {
                        "description": "The server has detected another record in database with the same key. That record will be sent with this response",
                        "schema": {
                            "$ref": "#/definitions/Bill"
                        }
                    },
                    "500": {
                        "description": "Inetnal error"
                    }
                }
            }
        },
        "/bills/{billId}": {
            "get": {
                "tags": [
                    "Bill"
                ],
                "summary": "Get a Bill",
                "description": "Gets the details of a single instance of a Bill",
                "operationId": "getBill",
                "parameters": [{
                    "name": "billId",
                    "in": "path",
                    "description": "A unique identifier for a `Bill`",
                    "required": true,
                    "type": "string"
                }],
                "responses": {
                    "200": {
                        "description": "Successful response - returns a exsting post",
                        "schema": {
                            "$ref": "#/definitions/Bill"
                        }
                    },
                    "404": {
                        "description": "This is generated when the post is not found in the system"
                    },
                    "500": {
                        "description": "Internal error"
                    }
                }
            },
            "put": {
                "tags": [
                    "Bill"
                ],
                "summary": "Update a Bill",
                "description": "Updates an existing `Bill`.",
                "operationId": "updateBill",
                "consumes": [
                    "application/json"
                ],
                "produces": [
                    "application/json"
                ],
                "parameters": [{
                        "name": "body",
                        "in": "body",
                        "description": "Updated Bill information.",
                        "required": true,
                        "schema": {
                            "$ref": "#/definitions/Bill"
                        }
                    },
                    {
                        "name": "billId",
                        "in": "path",
                        "description": "post id",
                        "required": true,
                        "type": "string"
                    }
                ],
                "responses": {
                    "202": {
                        "description": "Successfull. The updated record will be sent back with this response",
                        "schema": {
                            "$ref": "#/definitions/Bill"
                        }
                    },
                    "400": {
                        "description": "Validation failure",
                        "schema": {
                            "$ref": "#/definitions/Error"
                        }
                    },
                    "404": {
                        "description": "The post  is not found in the system. Cannot be updated"
                    },
                    "409": {
                        "description": "The server has detected that there is newer copy of the entity based on the ref_ver. Update is rejected.\nThe record that was found is sent with this response",
                        "schema": {
                            "$ref": "#/definitions/Bill"
                        }
                    },
                    "500": {
                        "description": "Internal error. Retry later"
                    }
                }
            },
            "delete": {
                "tags": [
                    "Bill"
                ],
                "summary": "Delete a Bill",
                "description": "Deletes an existing `Bill`.",
                "operationId": "deleteBill",
                "produces": [
                    "application/json"
                ],
                "parameters": [{
                    "name": "billId",
                    "in": "path",
                    "description": "A unique identifier for a `Bill`.",
                    "required": true,
                    "type": "string"
                }],
                "responses": {
                    "200": {
                        "description": "Succesfull. The deleted record will be sent back with this response",
                        "schema": {
                            "$ref": "#/definitions/Bill"
                        }
                    },
                    "400": {
                        "description": "Validation failures",
                        "schema": {
                            "$ref": "#/definitions/Error"
                        }
                    },
                    "404": {
                        "description": "Bill is not found in the system"
                    },
                    "500": {
                        "description": "Internal error"
                    }
                }
            }
        },
        "/bills/accounts/{accountId}": {
            "get": {
                "tags": [
                    "Bill"
                ],
                "summary": "Get all bills in sender",
                "description": "Get all bills from sender",
                "operationId": "getBillsInAccount",
                "parameters": [{
                    "name": "accountId",
                    "in": "path",
                    "description": "A unique identifier for a account",
                    "required": true,
                    "type": "string"
                }],
                "responses": {
                    "200": {
                        "description": "Successful response - returns a single `Bill`.",
                        "schema": {
                            "type": "array",
                            "items": {
                                "$ref": "#/definitions/Bill"
                            }
                        }
                    },
                    "404": {
                        "description": "This is generated when the sender is not found in the system"
                    },
                    "500": {
                        "description": "Internal error"
                    }
                }
            }
        },
        "/bills/dateFilter": {
            "get": {
                "tags": [
                    "Bill"
                ],
                "summary": "Get all bills in sender",
                "description": "Get all bills from sender",
                "operationId": "getBillsInAccountWithinTime",
                "parameters": [{
                        "name": "accountId",
                        "in": "query",
                        "description": "unique id of account",
                        "type": "string"
                    },
                    {
                        "name": "start_date",
                        "in": "query",
                        "description": "starting date",
                        "type": "string"
                    },
                    {
                        "name": "end_date",
                        "in": "query",
                        "description": "ending date",
                        "type": "string"
                    }
                ],
                "responses": {
                    "200": {
                        "description": "Successful response - returns a single `Bill`.",
                        "schema": {
                            "type": "array",
                            "items": {
                                "$ref": "#/definitions/Bill"
                            }
                        }
                    },
                    "404": {
                        "description": "This is generated when the sender is not found in the system"
                    },
                    "500": {
                        "description": "Internal error"
                    }
                }
            }
        }
    },
    "definitions": {
        "Error": {
            "title": "Root Type for Error",
            "description": "Error objtect returned by the API",
            "required": [
                "errors"
            ],
            "type": "object",
            "properties": {
                "errors": {
                    "description": "This is the array of error objects.\nEach error has a mandatory 'message' field populated. for validation errors the 'path'field may get populated to identify the field/path that triggered the error",
                    "type": "array",
                    "items": {
                        "$ref": "#/definitions/ErrorEntry"
                    }
                }
            },
            "example": "{\n    \"errors\": [\n       {\n          \"path\": \"role\",\n          \"errorCode\": \"required.openapi.validation\",\n          \"message\": \"should have required property 'role'\",\n          \"location\": \"body\"\n        },\n        {\n            \"path\": \"userid\",\n            \"message\": \"length must be less than 30\"\n        }\n    ]\n}"
        },
        "ErrorEntry": {
            "title": "Root Type for ErrorEntry",
            "description": "Inidividual error",
            "required": [
                "message"
            ],
            "type": "object",
            "properties": {
                "path": {
                    "description": "Optional field that points to the field inside the json message. May be used in validation failures",
                    "type": "string"
                },
                "errorCode": {
                    "description": "optional error code",
                    "type": "string"
                },
                "message": {
                    "description": "Error description",
                    "type": "string"
                },
                "location": {
                    "description": "optional field that point to the location of the error. This will be populated by API validators.",
                    "type": "string"
                }
            },
            "example": "{\n    \"path\": \"role\",\n    \"errorCode\": \"opneapi-IR12\",\n    \"message\": \"should have required property 'role'\",\n    \"location\": \"body\"\n}"
        },
        "User": {
            "required": [
                "user_id",
                "name",
                "account_id",
                "role",
                "password"
            ],
            "type": "object",
            "properties": {
                "user_id": {
                    "description": "Unique user id. Should be a alpha numberic string with length < 15",
                    "type": "string"
                },
                "name": {
                    "description": "The full name of the user. Maximum length is 100 chracters",
                    "type": "string"
                },
                "account_id": {
                    "description": "The account which this user belongs to. Should be a valid account_id defined in the system",
                    "type": "string"
                },
                "role": {
                    "description": "One or more valid roles names of the user",
                    "enum": [
                        "manager",
                        "customer",
                        "admin",
                        "worker"
                    ]
                },
                "password": {
                    "description": "password to authenticate",
                    "type": "string"
                },
                "email": {
                    "description": "email of user",
                    "type": "string"
                },
                "tp_number": {
                    "description": "mobile number of user",
                    "type": "string"
                },
                "image": {
                    "description": "image of user",
                    "type": "string"
                },
                "status": {
                    "description": "user status",
                    "enum": [
                        "active",
                        "inactive"
                    ]
                },
                "ref_ver": {
                    "description": "A reference version number that will be sent with GET and should be sent with PUT. This is an interger that server is updating with each update to the record",
                    "type": "integer"
                }
            }
        },
        "Account": {
            "description": "Account is an entity that users belong to. It can be an salon branch or salon network",
            "required": [
                "name",
                "account_id",
                "template_id",
                "official_number",
                "facebook_page",
                "address",
                "location",
                "description",
                "images"
            ],
            "type": "object",
            "properties": {
                "account_id": {
                    "description": "Unique identifier for the account. Alphanumberic < 15",
                    "type": "string"
                },
                "name": {
                    "description": "Name of the account. Alpha numeric. length < 50",
                    "type": "string"
                },
                "template_id": {
                    "description": "template number of gui interface",
                    "type": "integer"
                },
                "official_number": {
                    "description": "phone number",
                    "type": "string"
                },
                "facebook_page": {
                    "description": "facebook page link",
                    "type": "string"
                },
                "address": {
                    "description": "address of location",
                    "type": "string"
                },
                "location": {
                    "description": "location for map",
                    "type": "string"
                },
                "description": {
                    "description": "description of account",
                    "type": "string"
                },
                "images": {
                    "description": "image of home page",
                    "type": "array",
                    "items": {
                        "$ref": "#/definitions/Image"
                    }
                },
                "bussiness_setup": {
                    "$ref": "#/definitions/Bussiness_Setup",
                    "description": "bussiness functionality",
                    "type": "object"
                },
                "ref_ver": {
                    "description": "A reference version number that will be sent with GET and should be sent with PUT. This is an interger that server is updating with each update to the record",
                    "type": "integer"
                }
            }
        },
        "Image": {
            "description": "image in home page",
            "required": [
                "encorded_image"
            ],
            "type": "object",
            "properties": {
                "encorded_image": {
                    "description": "image key",
                    "type": "string"
                },
                "text1": {
                    "description": "text1",
                    "type": "string"
                },
                "text2": {
                    "description": "text2",
                    "type": "string"
                },
                "text3": {
                    "description": "text3",
                    "type": "string"
                }
            }
        },
        "Message": {
            "description": "message of users",
            "required": [
                "message_id",
                "reciever",
                "sender",
                "text",
                "ts"
            ],
            "type": "object",
            "properties": {
                "message_id": {
                    "description": "unique id",
                    "type": "string"
                },
                "reciever": {
                    "description": "message reciever",
                    "type": "string"
                },
                "sender": {
                    "description": "message sender",
                    "type": "string"
                },
                "text": {
                    "description": "message",
                    "type": "string"
                },
                "ts": {
                    "description": "time stamp",
                    "type": "string"
                }
            }
        },
        "Post": {
            "description": "posts in account",
            "required": [
                "post_id",
                "account_id",
                "members_only",
                "ts"
            ],
            "type": "object",
            "properties": {
                "post_id": {
                    "description": "unique id",
                    "type": "string"
                },
                "account_id": {
                    "description": "account of post",
                    "type": "string"
                },
                "text": {
                    "description": "text",
                    "type": "string"
                },
                "members_only": {
                    "description": "post is members only or public",
                    "type": "boolean"
                },
                "ts": {
                    "description": "time stamp",
                    "type": "string"
                },
                "post_images": {
                    "description": "images in post",
                    "type": "array"
                }
            }
        },
        "Review": {
            "description": "review for account",
            "required": [
                "review_id",
                "text",
                "sender",
                "account_id",
                "ts"
            ],
            "type": "object",
            "properties": {
                "review_id": {
                    "description": "unique id",
                    "type": "string"
                },
                "account_id": {
                    "description": "account of post",
                    "type": "string"
                },
                "text": {
                    "description": "text",
                    "type": "string"
                },
                "sender": {
                    "description": "sender",
                    "type": "string"
                },
                "ts": {
                    "description": "time stamp",
                    "type": "string"
                },
                "approved": {
                    "description": "review is approved",
                    "type": "boolean"
                }
            }
        },
        "Bill": {
            "description": "Bill of account",
            "required": [
                "bill_id",
                "customer_id",
                "worker_id",
                "bill_entry",
                "ts",
                "total_amount"
            ],
            "type": "object",
            "properties": {
                "bill_id": {
                    "description": "unique id",
                    "type": "string"
                },
                "customer_id": {
                    "description": "customer id",
                    "type": "string"
                },
                "worker_id": {
                    "description": "worker id",
                    "type": "string"
                },
                "ts": {
                    "description": "time stamp",
                    "type": "string"
                },
                "total_amount": {
                    "description": "total price",
                    "type": "number"
                },
                "bill_entry": {
                    "description": "bill entry",
                    "type": "array",
                    "items": {
                        "$ref": "#/definitions/Bill_Entry"
                    }
                }
            }
        },
        "Bill_Entry": {
            "description": "Bill Entry",
            "required": [
                "type",
                "type_id",
                "original_price",
                "selling_price"
            ],
            "type": "object",
            "properties": {
                "type": {
                    "description": "product or service",
                    "enum": [
                        "product",
                        "service"
                    ]
                },
                "type_id": {
                    "description": "product or service id",
                    "type": "string"
                },
                "original_price": {
                    "description": "original price",
                    "type": "string"
                },
                "selling_price": {
                    "description": "selling price",
                    "type": "string"
                }
            }
        },
        "Bussiness_Setup": {
            "description": "Bussiness_Setup",
            "type": "object",
            "properties": {
                "user_activity_period": {
                    "description": "user activity period in months",
                    "type": "integer"
                },
                "promotion_enable": {
                    "description": "enable promotion",
                    "type": "boolean"
                },
                "customized_promotion_enable": {
                    "description": "enable customized promotion",
                    "type": "boolean"
                },
                "product_promotion": {
                    "description": "product promotion percentage",
                    "type": "integer"
                },
                "service_promotion": {
                    "description": "service promotion percentage",
                    "type": "integer"
                },
                "active_user_count": {
                    "description": "active user count",
                    "type": "integer"
                }
            }
        },
        "Product": {
            "description": "product of account",
            "required": [
                "account_id",
                "servie_id",
                "service_name",
                "price",
                "stock"
            ],
            "type": "object",
            "properties": {
                "account_id": {
                    "description": "account id",
                    "type": "string"
                },
                "servie_id": {
                    "description": "product unique id",
                    "type": "string"
                },
                "product_name": {
                    "description": "product name",
                    "type": "string"
                },
                "price": {
                    "description": "price of product",
                    "type": "string"
                },
                "image_id": {
                    "description": "image of product",
                    "type": "string"
                },
                "stock": {
                    "description": "number of stock",
                    "type": "integer"
                }
            }
        },
        "Service": {
            "description": "service of account",
            "required": [
                "account_id",
                "servie_id",
                "service_name",
                "price"
            ],
            "type": "object",
            "properties": {
                "account_id": {
                    "description": "account id",
                    "type": "string"
                },
                "servie_id": {
                    "description": "service unique id",
                    "type": "string"
                },
                "service_name": {
                    "description": "service name",
                    "type": "string"
                },
                "price": {
                    "description": "price of service",
                    "type": "string"
                },
                "image_id": {
                    "description": "image of service",
                    "type": "string"
                }
            }
        }
    },
    "tags": [{
            "name": "Users",
            "description": "Users of the system"
        },
        {
            "name": "Accounts",
            "description": "Account is an entity that users belong to. It can be an salon branch or salon network"
        },
        {
            "name": "Image",
            "description": "image of home page"
        },
        {
            "name": "Message",
            "description": "message of users"
        },
        {
            "name": "Post",
            "description": "posts in account"
        },
        {
            "name": "Review",
            "description": "review for account"
        },
        {
            "name": "Bill",
            "description": "Bill of account"
        },
        {
            "name": "Bill_Entry",
            "description": "Bill Entry"
        },
        {
            "name": "Bussiness_Setup",
            "description": "Bussiness_Setup"
        },
        {
            "name": "Product",
            "description": "product of account"
        },
        {
            "name": "Service",
            "description": "service of account"
        }
    ]
}